nbpp taille temps
4194304 1 3.52986
4194304 1 3.50969
4194304 1 3.62753
4194304 1 4.19078
4194304 1 4.03635
4194304 1 4.30371
4194304 1 4.25327
4194304 1 4.56737
4194304 1 3.60025
4194304 1 4.39064
2097152 2 2.07541
2097152 2 2.20836
2097152 2 2.27475
2097152 2 1.86179
2097152 2 2.12368
2097152 2 2.19336
2097152 2 1.82664
2097152 2 2.17455
2097152 2 2.03746
2097152 2 2.23238
1048576 4 0.929219
1048576 4 1.09673
1048576 4 0.992496
1048576 4 0.92843
1048576 4 1.0968
1048576 4 1.00967
1048576 4 0.953786
1048576 4 0.941438
1048576 4 1.10583
1048576 4 0.908238
524288 8 0.551668
524288 8 0.565159
524288 8 0.454393
524288 8 0.546877
524288 8 0.443796
524288 8 0.442197
524288 8 0.525101
524288 8 0.530011
524288 8 0.527376
524288 8 0.567663
262144 16 0.267269
262144 16 0.283705
262144 16 0.252989
262144 16 0.295828
262144 16 0.267769
262144 16 0.242535
262144 16 0.268715
262144 16 0.275209
262144 16 0.28054
262144 16 0.239234
131072 32 0.148017
131072 32 0.148411
131072 32 0.158868
131072 32 0.117439
131072 32 0.15868
131072 32 0.146698
131072 32 0.132394
131072 32 0.152872
131072 32 0.123957
131072 32 0.148326
65536 64 0.0833093
65536 64 0.0870833
65536 64 0.0901467
65536 64 0.0883251
65536 64 0.0807681
65536 64 0.0892729
65536 64 0.0601947
65536 64 0.0813807
65536 64 0.0767311
65536 64 0.0881329
32768 128 0.0532679
32768 128 0.03798
32768 128 0.0345923
32768 128 0.0482336
32768 128 0.0544955
32768 128 0.0497028
32768 128 0.0535522
32768 128 0.0465445
32768 128 0.0461546
32768 128 0.055032
16384 256 0.0323558
16384 256 0.0202207
16384 256 0.029898
16384 256 0.0322078
16384 256 0.0328254
16384 256 0.0290602
16384 256 0.0305335
16384 256 0.0322029
16384 256 0.0202201
16384 256 0.0307711
8192 512 0.0170436
8192 512 0.0170477
8192 512 0.0115971
8192 512 0.017503
8192 512 0.0169955
8192 512 0.016797
8192 512 0.0162333
8192 512 0.0112745
8192 512 0.0174596
8192 512 0.0171334
4096 1024 0.00931099
4096 1024 0.00771184
4096 1024 0.00833556
4096 1024 0.00933163
4096 1024 0.00752663
4096 1024 0.00916025
4096 1024 0.00916695
4096 1024 0.00917678
4096 1024 0.00955854
4096 1024 0.00720574
2048 2048 0.00506645
2048 2048 0.0049769
2048 2048 0.00504487
2048 2048 0.00491373
2048 2048 0.00499576
2048 2048 0.00483548
2048 2048 0.00484606
2048 2048 0.00482824
2048 2048 0.00485726
2048 2048 0.00491227
1024 4096 0.00534355
1024 4096 0.00536072
1024 4096 0.00544492
1024 4096 0.00527537
1024 4096 0.00531935
1024 4096 0.00540217
1024 4096 0.00542619
1024 4096 0.00538587
1024 4096 0.00550092
1024 4096 0.00528887
512 8192 0.00337047
512 8192 0.00336037
512 8192 0.00353284
512 8192 0.00339937
512 8192 0.00348977
512 8192 0.00329455
512 8192 0.00336627
512 8192 0.00349185
512 8192 0.00335736
512 8192 0.00336183
256 16384 0.00233814
256 16384 0.00233496
256 16384 0.00233655
256 16384 0.00232538
256 16384 0.00231822
256 16384 0.00231957
256 16384 0.00244904
256 16384 0.0023101
256 16384 0.0023893
256 16384 0.0024049
128 32768 0.00161518
128 32768 0.00166739
128 32768 0.00174663
128 32768 0.00163022
128 32768 0.00172698
128 32768 0.00160184
128 32768 0.000803836
128 32768 0.00171674
128 32768 0.00164328
128 32768 0.00172265
64 65536 0.00125839
64 65536 0.00135774
64 65536 0.00136303
64 65536 0.00123348
64 65536 0.0012866
64 65536 0.00126303
64 65536 0.00126879
64 65536 0.001412
64 65536 0.00127427
64 65536 0.00128743
32 131072 0.00105781
32 131072 0.00115064
32 131072 0.00117386
32 131072 0.00105124
32 131072 0.00110588
32 131072 0.0011597
32 131072 0.0011771
32 131072 0.00115367
32 131072 0.00103595
32 131072 0.0011737
16 262144 0.00107618
16 262144 0.0010509
16 262144 0.00114349
16 262144 0.00119084
16 262144 0.00101159
16 262144 0.00108324
16 262144 0.00113225
16 262144 0.0010098
16 262144 0.00101412
16 262144 0.00104457
8 524288 0.00109187
8 524288 0.00120369
8 524288 0.00119106
8 524288 0.00106198
8 524288 0.00107412
8 524288 0.00117925
8 524288 0.00109263
8 524288 0.00107429
8 524288 0.00107176
8 524288 0.00121171
4 1048576 0.00133094
4 1048576 0.00134036
4 1048576 0.00132873
4 1048576 0.0014456
4 1048576 0.00141868
4 1048576 0.00140478
4 1048576 0.00129677
4 1048576 0.00141484
4 1048576 0.00145041
4 1048576 0.00131231
2 2097152 0.00187745
2 2097152 0.00185923
2 2097152 0.0018493
2 2097152 0.00196551
2 2097152 0.00201856
2 2097152 0.00184971
2 2097152 0.00197382
2 2097152 0.00188262
2 2097152 0.00199813
2 2097152 0.00200562
1 4194304 0.00303344
1 4194304 0.00300047
1 4194304 0.00307969
1 4194304 0.00309709
1 4194304 0.00293206
1 4194304 0.00292698
1 4194304 0.00291981
1 4194304 0.00291369
1 4194304 0.0030033
1 4194304 0.0028978
